{
  "name"      : "worker",
  "script"    : "docker',
  "instance   : 10,
  "merge_logs : true,
  "log_date_format" : "YYYY-MM-DD HH:mm:ss"
  "watch"     : true,
  "watch_option : {
  "followSymslinks" : true,
  "usePolling"      : true,
  "interval"        : 5
  }
}
